sketch/wokwi.vcd
$version Generated by Wokwi.com $end
$date Sat, 27 Jun 2026 01:23:10 GMT $end
$timescale 1ns $end
$scope module logic $end
$var wire 1 ! SCL $end
$var wire 1 " SDA $end
$upscope $end
$enddefinitions $end
#0
1!
#0
1"
#376344267
0"
#376349267
0!
#376349267
1"
#376354267
1!
#376359267
0!
#376364267
1!
#376369267
0!
#376374267
1!
#376379267
0!
#376379267
0"
#376384267
1!
#376389267
0!
#376389267
1"
#376394267
1!
#376399267
0!
#376404267
1!
#376409267
0!
#376409267
0"
#376414267
1!
#376419267
0!
#376424267
1!
#376429267
0!
#376434267
1!
#376439267
0!
#376439267
1"
#376439267
0"
#376444267
1!
#376449267
1"
#376851113
0"
#376856113
0!
#376856113
1"
#376861113
1!
#376866113
0!
#376871113
1!
#376876113
0!
#376881113
1!
#376886113
0!
#376886113
0"
#376891113
1!
#376896113
0!
#376896113
1"
#376901113
1!
#376906113
0!
#376911113
1!
#376916113
0!
#376916113
0"
#376921113
1!
#376926113
0!
#376931113
1!
#376936113
0!
#376941113
1!
#376946113
0!
#376946113
1"
#376951113
1!
#376956113
0!
#376961113
1!
#376966113
0!
#376966113
0"
#376971113
1!
#376976113
0!
#376976113
1"
#376981113
1!
#376986113
0!
#376986113
0"
#376991113
1!
#376996113
0!
#377001113
1!
#377006113
0!
#377011113
1!
#377016113
0!
#377021113
1!
#377026113
0!
#377031113
1!
#377036113
0!
#377036113
1"
#377036113
1!
#377046113
0"
#377051113
0!
#377051113
1"
#377056113
1!
#377061113
0!
#377066113
1!
#377071113
0!
#377076113
1!
#377081113
0!
#377081113
0"
#377086113
1!
#377091113
0!
#377091113
1"
#377096113
1!
#377101113
0!
#377106113
1!
#377111113
0!
#377111113
0"
#377116113
1!
#377121113
0!
#377121113
1"
#377126113
1!
#377131113
0!
#377131113
0"
#377136113
1!
#377141113
0!
#377141113
1"
#377141113
0"
#377146113
1!
#377151113
0!
#377151113
1"
#377156113
1!
#377161113
0!
#377166113
1!
#377171113
0!
#377171113
0"
#377176113
1!
#377181113
0!
#377181113
1"
#377181113
0"
#377186113
1!
#377191113
0!
#377191113
1"
#377191113
0"
#377196113
1!
#377201113
0!
#377201113
1"
#377201113
0"
#377206113
1!
#377211113
0!
#377211113
1"
#377211113
0"
#377216113
1!
#377221113
0!
#377221113
1"
#377226113
1!
#377231113
0!
#377231113
0"
#377236113
1!
#377241113
1"
#377503588
0"
#377508588
0!
#377508588
1"
#377513588
1!
#377518588
0!
#377523588
1!
#377528588
0!
#377533588
1!
#377538588
0!
#377538588
0"
#377543588
1!
#377548588
0!
#377548588
1"
#377553588
1!
#377558588
0!
#377563588
1!
#377568588
0!
#377568588
0"
#377573588
1!
#377578588
0!
#377583588
1!
#377588588
0!
#377593588
1!
#377598588
0!
#377598588
1"
#377603588
1!
#377608588
0!
#377613588
1!
#377618588
0!
#377623588
1!
#377628588
0!
#377628588
0"
#377633588
1!
#377638588
0!
#377643588
1!
#377648588
0!
#377653588
1!
#377658588
0!
#377663588
1!
#377668588
0!
#377673588
1!
#377678588
0!
#377683588
1!
#377688588
0!
#377688588
1"
#377693588
1!
#377698588
0!
#377698588
0"
#377703588
1!
#377708588
0!
#377708588
1"
#377713588
1!
#377718588
0!
#377723588
1!
#377728588
0!
#377728588
0"
#377733588
1!
#377738588
0!
#377738588
1"
#377743588
1!
#377748588
0!
#377753588
1!
#377758588
0!
#377758588
0"
#377763588
1!
#377768588
0!
#377773588
1!
#377778588
0!
#377778588
1"
#377778588
0"
#377783588
1!
#377788588
1"
#388448188
0"
#388453188
0!
#388453188
1"
#388458188
1!
#388463188
0!
#388468188
1!
#388473188
0!
#388478188
1!
#388483188
0!
#388483188
0"
#388488188
1!
#388493188
0!
#388493188
1"
#388498188
1!
#388503188
0!
#388508188
1!
#388513188
0!
#388513188
0"
#388518188
1!
#388523188
0!
#388528188
1!
#388533188
0!
#388538188
1!
#388543188
0!
#388543188
1"
#388548188
1!
#388553188
0!
#388558188
1!
#388563188
0!
#388568188
1!
#388573188
0!
#388578188
1!
#388583188
0!
#388583188
0"
#388588188
1!
#388593188
0!
#388598188
1!
#388603188
0!
#388603188
1"
#388608188
1!
#388613188
0!
#388618188
1!
#388623188
0!
#388623188
0"
#388628188
1!
#388633188
0!
#388633188
1"
#388633188
1!
#388643188
0"
#388648188
0!
#388648188
1"
#388653188
1!
#388658188
0!
#388663188
1!
#388668188
0!
#388673188
1!
#388678188
0!
#388678188
0"
#388683188
1!
#388688188
0!
#388688188
1"
#388693188
1!
#388698188
0!
#388703188
1!
#388708188
0!
#388708188
0"
#388713188
1!
#388718188
0!
#388718188
1"
#388723188
1!
#388728188
0!
#388728188
0"
#388733188
1!
#388738188
0!
#388738188
1"
#388738188
0"
#388743188
1!
#388748188
0!
#388748188
1"
#388748188
0"
#388753188
1!
#388758188
0!
#388758188
1"
#388758188
0"
#388763188
1!
#388768188
0!
#388768188
1"
#388768188
0"
#388773188
1!
#388778188
0!
#388778188
1"
#388778188
0"
#388783188
1!
#388788188
0!
#388788188
1"
#388788188
0"
#388793188
1!
#388798188
0!
#388798188
1"
#388798188
0"
#388803188
1!
#388808188
0!
#388808188
1"
#388808188
0"
#388813188
1!
#388818188
0!
#388818188
1"
#388823188
1!
#388828188
0!
#388828188
0"
#388833188
1!
#388838188
1"
#389225446
0"
#389230446
0!
#389230446
1"
#389235446
1!
#389240446
0!
#389245446
1!
#389250446
0!
#389255446
1!
#389260446
0!
#389260446
0"
#389265446
1!
#389270446
0!
#389270446
1"
#389275446
1!
#389280446
0!
#389285446
1!
#389290446
0!
#389290446
0"
#389295446
1!
#389300446
0!
#389305446
1!
#389310446
0!
#389315446
1!
#389320446
0!
#389320446
1"
#389325446
1!
#389330446
0!
#389330446
0"
#389335446
1!
#389340446
0!
#389345446
1!
#389350446
0!
#389355446
1!
#389360446
0!
#389360446
1"
#389365446
1!
#389370446
0!
#389370446
0"
#389375446
1!
#389380446
0!
#389385446
1!
#389390446
0!
#389395446
1!
#389400446
0!
#389405446
1!
#389410446
0!
#389410446
1"
#389410446
1!
#389420446
0"
#389425446
0!
#389425446
1"
#389430446
1!
#389435446
0!
#389440446
1!
#389445446
0!
#389450446
1!
#389455446
0!
#389455446
0"
#389460446
1!
#389465446
0!
#389465446
1"
#389470446
1!
#389475446
0!
#389480446
1!
#389485446
0!
#389485446
0"
#389490446
1!
#389495446
0!
#389495446
1"
#389500446
1!
#389505446
0!
#389505446
0"
#389510446
1!
#389515446
0!
#389515446
1"
#389515446
0"
#389520446
1!
#389525446
0!
#389525446
1"
#389530446
1!
#389535446
0!
#389540446
1!
#389545446
0!
#389550446
1!
#389555446
0!
#389555446
0"
#389560446
1!
#389565446
0!
#389565446
1"
#389565446
0"
#389570446
1!
#389575446
0!
#389575446
1"
#389575446
0"
#389580446
1!
#389585446
0!
#389585446
1"
#389585446
0"
#389590446
1!
#389595446
0!
#389595446
1"
#389595446
0"
#389600446
1!
#389605446
0!
#389610446
1!
#389615446
0!
#389615446
1"
#389620446
1!
#389625446
0!
#389630446
1!
#389635446
0!
#389635446
0"
#389640446
1!
#389645446
0!
#389645446
1"
#389650446
1!
#389655446
0!
#389655446
0"
#389660446
1!
#389665446
0!
#389665446
1"
#389670446
1!
#389675446
0!
#389680446
1!
#389685446
0!
#389690446
1!
#389695446
0!
#389695446
0"
#389700446
1!
#389705446
1"
#390073650
0"
#390078650
0!
#390078650
1"
#390083650
1!
#390088650
0!
#390093650
1!
#390098650
0!
#390103650
1!
#390108650
0!
#390108650
0"
#390113650
1!
#390118650
0!
#390118650
1"
#390123650
1!
#390128650
0!
#390133650
1!
#390138650
0!
#390138650
0"
#390143650
1!
#390148650
0!
#390153650
1!
#390158650
0!
#390163650
1!
#390168650
0!
#390168650
1"
#390173650
1!
#390178650
0!
#390178650
0"
#390183650
1!
#390188650
0!
#390193650
1!
#390198650
0!
#390203650
1!
#390208650
0!
#390208650
1"
#390213650
1!
#390218650
0!
#390218650
0"
#390223650
1!
#390228650
0!
#390228650
1"
#390233650
1!
#390238650
0!
#390238650
0"
#390243650
1!
#390248650
0!
#390253650
1!
#390258650
0!
#390258650
1"
#390258650
1!
#390268650
0"
#390273650
0!
#390273650
1"
#390278650
1!
#390283650
0!
#390288650
1!
#390293650
0!
#390298650
1!
#390303650
0!
#390303650
0"
#390308650
1!
#390313650
0!
#390313650
1"
#390318650
1!
#390323650
0!
#390328650
1!
#390333650
0!
#390333650
0"
#390338650
1!
#390343650
0!
#390343650
1"
#390348650
1!
#390353650
0!
#390353650
0"
#390358650
1!
#390363650
0!
#390363650
1"
#390363650
0"
#390368650
1!
#390373650
0!
#390373650
1"
#390378650
1!
#390383650
0!
#390383650
0"
#390388650
1!
#390393650
0!
#390393650
1"
#390393650
0"
#390398650
1!
#390403650
0!
#390403650
1"
#390403650
0"
#390408650
1!
#390413650
0!
#390413650
1"
#390413650
0"
#390418650
1!
#390423650
0!
#390423650
1"
#390428650
1!
#390433650
0!
#390438650
1!
#390443650
0!
#390443650
0"
#390448650
1!
#390453650
0!
#390458650
1!
#390463650
0!
#390463650
1"
#390468650
1!
#390473650
0!
#390478650
1!
#390483650
0!
#390483650
0"
#390488650
1!
#390493650
0!
#390493650
1"
#390493650
0"
#390498650
1!
#390503650
0!
#390503650
1"
#390508650
1!
#390513650
0!
#390518650
1!
#390523650
0!
#390528650
1!
#390533650
0!
#390538650
1!
#390543650
0!
#390543650
0"
#390548650
1!
#390553650
1"
#390858538
0"
#390863538
0!
#390863538
1"
#390868538
1!
#390873538
0!
#390878538
1!
#390883538
0!
#390888538
1!
#390893538
0!
#390893538
0"
#390898538
1!
#390903538
0!
#390903538
1"
#390908538
1!
#390913538
0!
#390918538
1!
#390923538
0!
#390923538
0"
#390928538
1!
#390933538
0!
#390938538
1!
#390943538
0!
#390948538
1!
#390953538
0!
#390953538
1"
#390958538
1!
#390963538
0!
#390963538
0"
#390968538
1!
#390973538
0!
#390978538
1!
#390983538
0!
#390988538
1!
#390993538
0!
#390993538
1"
#390998538
1!
#391003538
0!
#391008538
1!
#391013538
0!
#391013538
0"
#391018538
1!
#391023538
0!
#391028538
1!
#391033538
0!
#391038538
1!
#391043538
0!
#391043538
1"
#391043538
1!
#391053538
0"
#391058538
0!
#391058538
1"
#391063538
1!
#391068538
0!
#391073538
1!
#391078538
0!
#391083538
1!
#391088538
0!
#391088538
0"
#391093538
1!
#391098538
0!
#391098538
1"
#391103538
1!
#391108538
0!
#391113538
1!
#391118538
0!
#391118538
0"
#391123538
1!
#391128538
0!
#391128538
1"
#391133538
1!
#391138538
0!
#391138538
0"
#391143538
1!
#391148538
0!
#391148538
1"
#391148538
0"
#391153538
1!
#391158538
0!
#391158538
1"
#391158538
0"
#391163538
1!
#391168538
0!
#391168538
1"
#391168538
0"
#391173538
1!
#391178538
0!
#391178538
1"
#391183538
1!
#391188538
0!
#391193538
1!
#391198538
0!
#391198538
0"
#391203538
1!
#391208538
0!
#391208538
1"
#391208538
0"
#391213538
1!
#391218538
0!
#391218538
1"
#391218538
0"
#391223538
1!
#391228538
0!
#391228538
1"
#391228538
0"
#391233538
1!
#391238538
0!
#391238538
1"
#391243538
1!
#391248538
0!
#391253538
1!
#391258538
0!
#391263538
1!
#391268538
0!
#391273538
1!
#391278538
0!
#391283538
1!
#391288538
0!
#391293538
1!
#391298538
0!
#391298538
0"
#391303538
1!
#391308538
0!
#391308538
1"
#391308538
0"
#391313538
1!
#391318538
0!
#391318538
1"
#391323538
1!
#391328538
0!
#391328538
0"
#391333538
1!
#391338538
1"
#391651158
0"
#391656158
0!
#391656158
1"
#391661158
1!
#391666158
0!
#391671158
1!
#391676158
0!
#391681158
1!
#391686158
0!
#391686158
0"
#391691158
1!
#391696158
0!
#391696158
1"
#391701158
1!
#391706158
0!
#391711158
1!
#391716158
0!
#391716158
0"
#391721158
1!
#391726158
0!
#391731158
1!
#391736158
0!
#391741158
1!
#391746158
0!
#391746158
1"
#391751158
1!
#391756158
0!
#391756158
0"
#391761158
1!
#391766158
0!
#391771158
1!
#391776158
0!
#391781158
1!
#391786158
0!
#391786158
1"
#391791158
1!
#391796158
0!
#391801158
1!
#391806158
0!
#391811158
1!
#391816158
0!
#391816158
0"
#391821158
1!
#391826158
0!
#391831158
1!
#391836158
0!
#391836158
1"
#391836158
1!
#391846158
0"
#391851158
0!
#391851158
1"
#391856158
1!
#391861158
0!
#391866158
1!
#391871158
0!
#391876158
1!
#391881158
0!
#391881158
0"
#391886158
1!
#391891158
0!
#391891158
1"
#391896158
1!
#391901158
0!
#391906158
1!
#391911158
0!
#391911158
0"
#391916158
1!
#391921158
0!
#391921158
1"
#391926158
1!
#391931158
0!
#391931158
0"
#391936158
1!
#391941158
0!
#391941158
1"
#391941158
0"
#391946158
1!
#391951158
0!
#391951158
1"
#391956158
1!
#391961158
0!
#391966158
1!
#391971158
0!
#391976158
1!
#391981158
0!
#391986158
1!
#391991158
0!
#391996158
1!
#392001158
0!
#392001158
0"
#392006158
1!
#392011158
0!
#392011158
1"
#392016158
1!
#392021158
0!
#392021158
0"
#392026158
1!
#392031158
0!
#392031158
1"
#392036158
1!
#392041158
0!
#392041158
0"
#392046158
1!
#392051158
0!
#392051158
1"
#392051158
0"
#392056158
1!
#392061158
0!
#392061158
1"
#392061158
0"
#392066158
1!
#392071158
0!
#392071158
1"
#392076158
1!
#392081158
0!
#392086158
1!
#392091158
0!
#392096158
1!
#392101158
0!
#392101158
0"
#392106158
1!
#392111158
0!
#392111158
1"
#392116158
1!
#392121158
0!
#392121158
0"
#392126158
1!
#392131158
1"
#392500871
0"
#392505871
0!
#392505871
1"
#392510871
1!
#392515871
0!
#392520871
1!
#392525871
0!
#392530871
1!
#392535871
0!
#392535871
0"
#392540871
1!
#392545871
0!
#392545871
1"
#392550871
1!
#392555871
0!
#392560871
1!
#392565871
0!
#392565871
0"
#392570871
1!
#392575871
0!
#392580871
1!
#392585871
0!
#392590871
1!
#392595871
0!
#392595871
1"
#392600871
1!
#392605871
0!
#392605871
0"
#392610871
1!
#392615871
0!
#392620871
1!
#392625871
0!
#392625871
1"
#392630871
1!
#392635871
0!
#392635871
0"
#392640871
1!
#392645871
0!
#392650871
1!
#392655871
0!
#392660871
1!
#392665871
0!
#392670871
1!
#392675871
0!
#392680871
1!
#392685871
0!
#392685871
1"
#392685871
1!
#392695871
0"
#392700871
0!
#392700871
1"
#392705871
1!
#392710871
0!
#392715871
1!
#392720871
0!
#392725871
1!
#392730871
0!
#392730871
0"
#392735871
1!
#392740871
0!
#392740871
1"
#392745871
1!
#392750871
0!
#392755871
1!
#392760871
0!
#392760871
0"
#392765871
1!
#392770871
0!
#392770871
1"
#392775871
1!
#392780871
0!
#392780871
0"
#392785871
1!
#392790871
0!
#392790871
1"
#392790871
0"
#392795871
1!
#392800871
0!
#392800871
1"
#392805871
1!
#392810871
0!
#392810871
0"
#392815871
1!
#392820871
0!
#392820871
1"
#392820871
0"
#392825871
1!
#392830871
0!
#392830871
1"
#392830871
0"
#392835871
1!
#392840871
0!
#392840871
1"
#392840871
0"
#392845871
1!
#392850871
0!
#392850871
1"
#392855871
1!
#392860871
0!
#392865871
1!
#392870871
0!
#392870871
0"
#392875871
1!
#392880871
0!
#392880871
1"
#392885871
1!
#392890871
0!
#392895871
1!
#392900871
0!
#392900871
0"
#392905871
1!
#392910871
0!
#392910871
1"
#392915871
1!
#392920871
0!
#392920871
0"
#392925871
1!
#392930871
0!
#392930871
1"
#392935871
1!
#392940871
0!
#392945871
1!
#392950871
0!
#392950871
0"
#392955871
1!
#392960871
0!
#392960871
1"
#392965871
1!
#392970871
0!
#392970871
0"
#392975871
1!
#392980871
1"
#393365783
0"
#393370783
0!
#393370783
1"
#393375783
1!
#393380783
0!
#393385783
1!
#393390783
0!
#393395783
1!
#393400783
0!
#393400783
0"
#393405783
1!
#393410783
0!
#393410783
1"
#393415783
1!
#393420783
0!
#393425783
1!
#393430783
0!
#393430783
0"
#393435783
1!
#393440783
0!
#393445783
1!
#393450783
0!
#393455783
1!
#393460783
0!
#393460783
1"
#393465783
1!
#393470783
0!
#393470783
0"
#393475783
1!
#393480783
0!
#393485783
1!
#393490783
0!
#393490783
1"
#393495783
1!
#393500783
0!
#393500783
0"
#393505783
1!
#393510783
0!
#393515783
1!
#393520783
0!
#393520783
1"
#393525783
1!
#393530783
0!
#393530783
0"
#393535783
1!
#393540783
0!
#393545783
1!
#393550783
0!
#393550783
1"
#393550783
1!
#393560783
0"
#393565783
0!
#393565783
1"
#393570783
1!
#393575783
0!
#393580783
1!
#393585783
0!
#393590783
1!
#393595783
0!
#393595783
0"
#393600783
1!
#393605783
0!
#393605783
1"
#393610783
1!
#393615783
0!
#393620783
1!
#393625783
0!
#393625783
0"
#393630783
1!
#393635783
0!
#393635783
1"
#393640783
1!
#393645783
0!
#393645783
0"
#393650783
1!
#393655783
0!
#393655783
1"
#393660783
1!
#393665783
0!
#393670783
1!
#393675783
0!
#393675783
0"
#393680783
1!
#393685783
0!
#393685783
1"
#393690783
1!
#393695783
0!
#393695783
0"
#393700783
1!
#393705783
0!
#393705783
1"
#393705783
0"
#393710783
1!
#393715783
0!
#393715783
1"
#393715783
0"
#393720783
1!
#393725783
0!
#393725783
1"
#393725783
0"
#393730783
1!
#393735783
0!
#393735783
1"
#393735783
0"
#393740783
1!
#393745783
0!
#393750783
1!
#393755783
0!
#393755783
1"
#393755783
0"
#393760783
1!
#393765783
0!
#393765783
1"
#393765783
0"
#393770783
1!
#393775783
0!
#393775783
1"
#393775783
0"
#393780783
1!
#393785783
0!
#393785783
1"
#393790783
1!
#393795783
0!
#393795783
0"
#393800783
1!
#393805783
0!
#393805783
1"
#393810783
1!
#393815783
0!
#393820783
1!
#393825783
0!
#393830783
1!
#393835783
0!
#393835783
0"
#393840783
1!
#393845783
1"
#394230696
0"
#394235696
0!
#394235696
1"
#394240696
1!
#394245696
0!
#394250696
1!
#394255696
0!
#394260696
1!
#394265696
0!
#394265696
0"
#394270696
1!
#394275696
0!
#394275696
1"
#394280696
1!
#394285696
0!
#394290696
1!
#394295696
0!
#394295696
0"
#394300696
1!
#394305696
0!
#394310696
1!
#394315696
0!
#394320696
1!
#394325696
0!
#394325696
1"
#394330696
1!
#394335696
0!
#394335696
0"
#394340696
1!
#394345696
0!
#394350696
1!
#394355696
0!
#394355696
1"
#394360696
1!
#394365696
0!
#394365696
0"
#394370696
1!
#394375696
0!
#394375696
1"
#394380696
1!
#394385696
0!
#394385696
0"
#394390696
1!
#394395696
0!
#394400696
1!
#394405696
0!
#394410696
1!
#394415696
0!
#394415696
1"
#394415696
1!
#394425696
0"
#394430696
0!
#394430696
1"
#394435696
1!
#394440696
0!
#394445696
1!
#394450696
0!
#394455696
1!
#394460696
0!
#394460696
0"
#394465696
1!
#394470696
0!
#394470696
1"
#394475696
1!
#394480696
0!
#394485696
1!
#394490696
0!
#394490696
0"
#394495696
1!
#394500696
0!
#394500696
1"
#394505696
1!
#394510696
0!
#394510696
0"
#394515696
1!
#394520696
0!
#394520696
1"
#394520696
0"
#394525696
1!
#394530696
0!
#394530696
1"
#394530696
0"
#394535696
1!
#394540696
0!
#394540696
1"
#394545696
1!
#394550696
0!
#394550696
0"
#394555696
1!
#394560696
0!
#394560696
1"
#394560696
0"
#394565696
1!
#394570696
0!
#394570696
1"
#394575696
1!
#394580696
0!
#394585696
1!
#394590696
0!
#394595696
1!
#394600696
0!
#394600696
0"
#394605696
1!
#394610696
0!
#394615696
1!
#394620696
0!
#394620696
1"
#394620696
0"
#394625696
1!
#394630696
0!
#394630696
1"
#394630696
0"
#394635696
1!
#394640696
0!
#394640696
1"
#394640696
0"
#394645696
1!
#394650696
0!
#394650696
1"
#394655696
1!
#394660696
0!
#394660696
0"
#394665696
1!
#394670696
0!
#394670696
1"
#394675696
1!
#394680696
0!
#394685696
1!
#394690696
0!
#394695696
1!
#394700696
0!
#394700696
0"
#394705696
1!
#394710696
1"
#395078900
0"
#395083900
0!
#395083900
1"
#395088900
1!
#395093900
0!
#395098900
1!
#395103900
0!
#395108900
1!
#395113900
0!
#395113900
0"
#395118900
1!
#395123900
0!
#395123900
1"
#395128900
1!
#395133900
0!
#395138900
1!
#395143900
0!
#395143900
0"
#395148900
1!
#395153900
0!
#395158900
1!
#395163900
0!
#395168900
1!
#395173900
0!
#395173900
1"
#395178900
1!
#395183900
0!
#395183900
0"
#395188900
1!
#395193900
0!
#395198900
1!
#395203900
0!
#395203900
1"
#395208900
1!
#395213900
0!
#395213900
0"
#395218900
1!
#395223900
0!
#395223900
1"
#395228900
1!
#395233900
0!
#395238900
1!
#395243900
0!
#395243900
0"
#395248900
1!
#395253900
0!
#395258900
1!
#395263900
0!
#395263900
1"
#395263900
1!
#395273900
0"
#395278900
0!
#395278900
1"
#395283900
1!
#395288900
0!
#395293900
1!
#395298900
0!
#395303900
1!
#395308900
0!
#395308900
0"
#395313900
1!
#395318900
0!
#395318900
1"
#395323900
1!
#395328900
0!
#395333900
1!
#395338900
0!
#395338900
0"
#395343900
1!
#395348900
0!
#395348900
1"
#395353900
1!
#395358900
0!
#395358900
0"
#395363900
1!
#395368900
0!
#395368900
1"
#395373900
1!
#395378900
0!
#395378900
0"
#395383900
1!
#395388900
0!
#395388900
1"
#395388900
0"
#395393900
1!
#395398900
0!
#395398900
1"
#395398900
0"
#395403900
1!
#395408900
0!
#395408900
1"
#395413900
1!
#395418900
0!
#395423900
1!
#395428900
0!
#395428900
0"
#395433900
1!
#395438900
0!
#395438900
1"
#395438900
0"
#395443900
1!
#395448900
0!
#395448900
1"
#395448900
0"
#395453900
1!
#395458900
0!
#395463900
1!
#395468900
0!
#395468900
1"
#395468900
0"
#395473900
1!
#395478900
0!
#395478900
1"
#395478900
0"
#395483900
1!
#395488900
0!
#395488900
1"
#395488900
0"
#395493900
1!
#395498900
0!
#395498900
1"
#395498900
0"
#395503900
1!
#395508900
0!
#395508900
1"
#395508900
0"
#395513900
1!
#395518900
0!
#395518900
1"
#395518900
0"
#395523900
1!
#395528900
0!
#395528900
1"
#395528900
0"
#395533900
1!
#395538900
0!
#395538900
1"
#395543900
1!
#395548900
0!
#395548900
0"
#395553900
1!
#395558900
1"
#395862217
0"
#395867217
0!
#395867217
1"
#395872217
1!
#395877217
0!
#395882217
1!
#395887217
0!
#395892217
1!
#395897217
0!
#395897217
0"
#395902217
1!
#395907217
0!
#395907217
1"
#395912217
1!
#395917217
0!
#395922217
1!
#395927217
0!
#395927217
0"
#395932217
1!
#395937217
0!
#395942217
1!
#395947217
0!
#395952217
1!
#395957217
0!
#395957217
1"
#395962217
1!
#395967217
0!
#395967217
0"
#395972217
1!
#395977217
0!
#395982217
1!
#395987217
0!
#395987217
1"
#395992217
1!
#395997217
0!
#396002217
1!
#396007217
0!
#396007217
0"
#396012217
1!
#396017217
0!
#396022217
1!
#396027217
0!
#396032217
1!
#396037217
0!
#396042217
1!
#396047217
0!
#396047217
1"
#396047217
1!
#396057217
0"
#396062217
0!
#396062217
1"
#396067217
1!
#396072217
0!
#396077217
1!
#396082217
0!
#396087217
1!
#396092217
0!
#396092217
0"
#396097217
1!
#396102217
0!
#396102217
1"
#396107217
1!
#396112217
0!
#396117217
1!
#396122217
0!
#396122217
0"
#396127217
1!
#396132217
0!
#396132217
1"
#396137217
1!
#396142217
0!
#396142217
0"
#396147217
1!
#396152217
0!
#396152217
1"
#396157217
1!
#396162217
0!
#396167217
1!
#396172217
0!
#396177217
1!
#396182217
0!
#396187217
1!
#396192217
0!
#396197217
1!
#396202217
0!
#396202217
0"
#396207217
1!
#396212217
0!
#396212217
1"
#396212217
0"
#396217217
1!
#396222217
0!
#396222217
1"
#396227217
1!
#396232217
0!
#396232217
0"
#396237217
1!
#396242217
0!
#396242217
1"
#396247217
1!
#396252217
0!
#396257217
1!
#396262217
0!
#396267217
1!
#396272217
0!
#396277217
1!
#396282217
0!
#396287217
1!
#396292217
0!
#396297217
1!
#396302217
0!
#396307217
1!
#396312217
0!
#396317217
1!
#396322217
0!
#396327217
1!
#396332217
0!
#396332217
0"
#396337217
1!
#396342217
1"
#396656046
0"
#396661046
0!
#396661046
1"
#396666046
1!
#396671046
0!
#396676046
1!
#396681046
0!
#396686046
1!
#396691046
0!
#396691046
0"
#396696046
1!
#396701046
0!
#396701046
1"
#396706046
1!
#396711046
0!
#396716046
1!
#396721046
0!
#396721046
0"
#396726046
1!
#396731046
0!
#396736046
1!
#396741046
0!
#396746046
1!
#396751046
0!
#396751046
1"
#396756046
1!
#396761046
0!
#396761046
0"
#396766046
1!
#396771046
0!
#396776046
1!
#396781046
0!
#396781046
1"
#396786046
1!
#396791046
0!
#396796046
1!
#396801046
0!
#396801046
0"
#396806046
1!
#396811046
0!
#396811046
1"
#396816046
1!
#396821046
0!
#396821046
0"
#396826046
1!
#396831046
0!
#396836046
1!
#396841046
0!
#396841046
1"
#396841046
1!
#396851046
0"
#396856046
0!
#396856046
1"
#396861046
1!
#396866046
0!
#396871046
1!
#396876046
0!
#396881046
1!
#396886046
0!
#396886046
0"
#396891046
1!
#396896046
0!
#396896046
1"
#396901046
1!
#396906046
0!
#396911046
1!
#396916046
0!
#396916046
0"
#396921046
1!
#396926046
0!
#396926046
1"
#396931046
1!
#396936046
0!
#396936046
0"
#396941046
1!
#396946046
0!
#396946046
1"
#396951046
1!
#396956046
0!
#396956046
0"
#396961046
1!
#396966046
0!
#396966046
1"
#396966046
0"
#396971046
1!
#396976046
0!
#396976046
1"
#396976046
0"
#396981046
1!
#396986046
0!
#396986046
1"
#396991046
1!
#396996046
0!
#397001046
1!
#397006046
0!
#397006046
0"
#397011046
1!
#397016046
0!
#397016046
1"
#397016046
0"
#397021046
1!
#397026046
0!
#397026046
1"
#397026046
0"
#397031046
1!
#397036046
0!
#397041046
1!
#397046046
0!
#397046046
1"
#397046046
0"
#397051046
1!
#397056046
0!
#397056046
1"
#397061046
1!
#397066046
0!
#397071046
1!
#397076046
0!
#397081046
1!
#397086046
0!
#397091046
1!
#397096046
0!
#397096046
0"
#397101046
1!
#397106046
0!
#397106046
1"
#397106046
0"
#397111046
1!
#397116046
0!
#397116046
1"
#397121046
1!
#397126046
0!
#397126046
0"
#397131046
1!
#397136046
1"
#397503900
0"
#397508900
0!
#397508900
1"
#397513900
1!
#397518900
0!
#397523900
1!
#397528900
0!
#397533900
1!
#397538900
0!
#397538900
0"
#397543900
1!
#397548900
0!
#397548900
1"
#397553900
1!
#397558900
0!
#397563900
1!
#397568900
0!
#397568900
0"
#397573900
1!
#397578900
0!
#397583900
1!
#397588900
0!
#397593900
1!
#397598900
0!
#397598900
1"
#397603900
1!
#397608900
0!
#397608900
0"
#397613900
1!
#397618900
0!
#397623900
1!
#397628900
0!
#397628900
1"
#397633900
1!
#397638900
0!
#397643900
1!
#397648900
0!
#397653900
1!
#397658900
0!
#397658900
0"
#397663900
1!
#397668900
0!
#397673900
1!
#397678900
0!
#397683900
1!
#397688900
0!
#397688900
1"
#397688900
1!
#397698900
0"
#397703900
0!
#397703900
1"
#397708900
1!
#397713900
0!
#397718900
1!
#397723900
0!
#397728900
1!
#397733900
0!
#397733900
0"
#397738900
1!
#397743900
0!
#397743900
1"
#397748900
1!
#397753900
0!
#397758900
1!
#397763900
0!
#397763900
0"
#397768900
1!
#397773900
0!
#397773900
1"
#397778900
1!
#397783900
0!
#397783900
0"
#397788900
1!
#397793900
0!
#397793900
1"
#397793900
0"
#397798900
1!
#397803900
0!
#397803900
1"
#397803900
0"
#397808900
1!
#397813900
0!
#397813900
1"
#397818900
1!
#397823900
0!
#397828900
1!
#397833900
0!
#397838900
1!
#397843900
0!
#397843900
0"
#397848900
1!
#397853900
0!
#397853900
1"
#397853900
0"
#397858900
1!
#397863900
0!
#397863900
1"
#397863900
0"
#397868900
1!
#397873900
0!
#397873900
1"
#397873900
0"
#397878900
1!
#397883900
0!
#397883900
1"
#397888900
1!
#397893900
0!
#397898900
1!
#397903900
0!
#397903900
0"
#397908900
1!
#397913900
0!
#397913900
1"
#397913900
0"
#397918900
1!
#397923900
0!
#397923900
1"
#397923900
0"
#397928900
1!
#397933900
0!
#397933900
1"
#397938900
1!
#397943900
0!
#397948900
1!
#397953900
0!
#397958900
1!
#397963900
0!
#397968900
1!
#397973900
0!
#397973900
0"
#397978900
1!
#397983900
1"
#398368813
0"
#398373813
0!
#398373813
1"
#398378813
1!
#398383813
0!
#398388813
1!
#398393813
0!
#398398813
1!
#398403813
0!
#398403813
0"
#398408813
1!
#398413813
0!
#398413813
1"
#398418813
1!
#398423813
0!
#398428813
1!
#398433813
0!
#398433813
0"
#398438813
1!
#398443813
0!
#398448813
1!
#398453813
0!
#398458813
1!
#398463813
0!
#398463813
1"
#398468813
1!
#398473813
0!
#398473813
0"
#398478813
1!
#398483813
0!
#398488813
1!
#398493813
0!
#398493813
1"
#398498813
1!
#398503813
0!
#398508813
1!
#398513813
0!
#398518813
1!
#398523813
0!
#398528813
1!
#398533813
0!
#398533813
0"
#398538813
1!
#398543813
0!
#398548813
1!
#398553813
0!
#398553813
1"
#398553813
1!
#398563813
0"
#398568813
0!
#398568813
1"
#398573813
1!
#398578813
0!
#398583813
1!
#398588813
0!
#398593813
1!
#398598813
0!
#398598813
0"
#398603813
1!
#398608813
0!
#398608813
1"
#398613813
1!
#398618813
0!
#398623813
1!
#398628813
0!
#398628813
0"
#398633813
1!
#398638813
0!
#398638813
1"
#398643813
1!
#398648813
0!
#398648813
0"
#398653813
1!
#398658813
0!
#398658813
1"
#398658813
0"
#398663813
1!
#398668813
0!
#398668813
1"
#398673813
1!
#398678813
0!
#398683813
1!
#398688813
0!
#398693813
1!
#398698813
0!
#398698813
0"
