wokwi-logic (1).vcd
$version Generated by Wokwi.com $end
$date Sat, 27 Jun 2026 01:37:09 GMT $end
$timescale 1ns $end
$scope module logic $end
$var wire 1 ! SCL $end
$var wire 1 " SDA $end
$upscope $end
$enddefinitions $end
#0
1!
#0
1"
#376304363
0"
#376309363
0!
#376309363
1"
#376314363
1!
#376319363
0!
#376324363
1!
#376329363
0!
#376334363
1!
#376339363
0!
#376339363
0"
#376344363
1!
#376349363
0!
#376349363
1"
#376354363
1!
#376359363
0!
#376364363
1!
#376369363
0!
#376369363
0"
#376374363
1!
#376379363
0!
#376384363
1!
#376389363
0!
#376389363
1"
#376394363
1!
#376399363
0!
#376399363
0"
#376404363
1!
#376409363
1"
#393612025
0"
#393613275
0!
#393614525
1!
#393615775
0!
#393615775
1"
#393617025
1!
#393618275
0!
#393619525
1!
#393620775
0!
#393622025
1!
#393623275
0!
#393624525
1!
#393625775
0!
#393625775
0"
#393627025
1!
#393628275
0!
#393629525
1!
#393630775
0!
#393632025
1!
#393633275
0!
#393634525
1!
#393635775
1"
#393635775
0!
#393635775
0"
#393637025
1!
#393638275
0!
#393639525
1!
#393640775
0!
#393642025
1!
#393643275
0!
#393644525
1!
#393645775
0!
#393647025
1!
#393648275
0!
#393649525
1!
#393650775
0!
#393652025
1!
#393653275
0!
#393654525
1!
#393655775
0!
#393657025
1!
#393658275
1"
#393658275
0!
#393659525
1!
#393660775
0!
#393660775
0"
#393662025
1!
#393663275
0!
#393663275
1"
#393664525
1!
#393665775
0!
#393665775
0"
#393667025
1!
#393668275
0!
#393668275
1"
#393669525
1!
#393670775
0!
#393672025
1!
#393673275
0!
#393674525
1!
#393675775
0!
#393675775
0"
#393677025
1!
#393678275
0!
#393679525
1!
#393680775
1"
#393680775
0!
#393682025
1!
#393683275
0!
#393684525
1!
#393685775
0!
#393685775
0"
#393687025
1!
#393688275
0!
#393688275
1"
#393689525
1!
#393690775
0!
#393690775
0"
#393692025
1!
#393693275
0!
#393693275
1"
#393694525
1!
#393695775
0!
#393695775
0"
#393697025
1!
#393698275
0!
#393698275
1"
#393699525
1!
#393700775
0"
#393700775
0!
#393702025
1!
#393703275
1"
#393703275
0!
#393704525
1!
#393705775
0!
#393705775
0"
#393707025
1!
#393708275
0!
#393709525
1!
#393710775
0!
#393712025
1!
#393713275
0!
#393714525
1!
#393715775
0!
#393717025
1!
#393718275
0!
#393719525
1!
#393720775
0!
#393722025
1!
#393723275
0!
#393724525
1!
#393725775
1"
#393725775
0!
#393727025
1!
#393728275
0!
#393728275
0"
#393729525
1!
#393730775
0!
#393730775
1"
#393732025
1!
#393733275
0!
#393733275
0"
#393734525
1!
#393735775
0!
#393735775
1"
#393737025
1!
#393738275
0!
#393738275
0"
#393739525
1!
#393740775
0!
#393742025
1!
#393743275
0!
#393744525
1!
#393745775
0!
#393747025
1!
#393748275
1"
#393748275
0!
#393748275
0"
#393749525
1!
#393750775
1"
#393999213
0"
#394000463
0!
#394001713
1!
#394002963
0!
#394002963
1"
#394004213
1!
#394005463
0!
#394006713
1!
#394007963
0!
#394009213
1!
#394010463
0!
#394011713
1!
#394012963
0!
#394012963
0"
#394014213
1!
#394015463
0!
#394016713
1!
#394017963
0!
#394019213
1!
#394020463
0!
#394021713
1!
#394022963
1"
#394022963
0!
#394022963
0"
#394024213
1!
#394025463
0!
#394026713
1!
#394027963
0!
#394029213
1!
#394030463
0!
#394031713
1!
#394032963
0!
#394034213
1!
#394035463
0!
#394036713
1!
#394037963
0!
#394039213
1!
#394040463
0!
#394041713
1!
#394042963
0!
#394044213
1!
#394045463
1"
#394045463
0!
#394045463
0"
#394046713
1!
#394047963
0!
#394049213
1!
#394050463
0!
#394050463
1"
#394051713
1!
#394052963
0!
#394054213
1!
#394055463
0!
#394056713
1!
#394057963
0!
#394059213
1!
#394060463
0!
#394061713
1!
#394062963
0!
#394064213
1!
#394065463
0"
#394065463
0!
#394066713
1!
#394067963
1"
#394067963
0!
#394067963
0"
#394069213
1!
#394070463
1"
#394347367
0"
#394348617
0!
#394349867
1!
#394351117
0!
#394351117
1"
#394352367
1!
#394353617
0!
#394354867
1!
#394356117
0!
#394357367
1!
#394358617
0!
#394359867
1!
#394361117
0!
#394361117
0"
#394362367
1!
#394363617
0!
#394364867
1!
#394366117
0!
#394367367
1!
#394368617
0!
#394369867
1!
#394371117
1"
#394371117
0!
#394371117
0"
#394372367
1!
#394373617
0!
#394374867
1!
#394376117
0!
#394377367
1!
#394378617
0!
#394379867
1!
#394381117
0!
#394382367
1!
#394383617
0!
#394384867
1!
#394386117
0!
#394387367
1!
#394388617
0!
#394389867
1!
#394391117
0!
#394392367
1!
#394393617
1"
#394393617
0!
#394394867
1!
#394396117
0!
#394397367
1!
#394398617
0!
#394398617
0"
#394399867
1!
#394401117
0!
#394401117
1"
#394402367
1!
#394403617
0!
#394403617
0"
#394404867
1!
#394406117
0!
#394407367
1!
#394408617
0!
#394408617
1"
#394409867
1!
#394411117
0!
#394412367
1!
#394413617
0"
#394413617
0!
#394414867
1!
#394416117
1"
#394416117
0!
#394416117
0"
#394417367
1!
#394418617
0!
#394419867
1!
#394421117
0!
#394422367
1!
#394423617
0!
#394424867
1!
#394426117
0!
#394427367
1!
#394428617
0!
#394429867
1!
#394431117
0!
#394432367
1!
#394433617
0!
#394434867
1!
#394436117
0!
#394437367
1!
#394438617
1"
#394438617
0!
#394438617
0"
#394439867
1!
#394441117
0!
#394441117
1"
#394442367
1!
#394443617
0!
#394443617
0"
#394444867
1!
#394446117
0!
#394447367
1!
#394448617
0!
#394449867
1!
#394451117
0!
#394452367
1!
#394453617
0!
#394454867
1!
#394456117
0!
#394457367
1!
#394458617
0!
#394459867
1!
#394461117
1"
#394461117
0!
#394462367
1!
#394463617
0!
#394463617
0"
#394464867
1!
#394466117
0!
#394467367
1!
#394468617
0!
#394469867
1!
#394471117
0!
#394471117
1"
#394472367
1!
#394473617
0!
#394474867
1!
#394476117
0!
#394476117
0"
#394477367
1!
#394478617
0!
#394478617
1"
#394479867
1!
#394481117
0"
#394481117
0!
#394482367
1!
#394483617
1"
#394483617
0!
#394483617
0"
#394484867
1!
#394486117
1"
#394689363
0"
#394690613
0!
#394691863
1!
#394693113
0!
#394693113
1"
#394694363
1!
#394695613
0!
#394696863
1!
#394698113
0!
#394699363
1!
#394700613
0!
#394701863
1!
#394703113
0!
#394703113
0"
#394704363
1!
#394705613
0!
#394706863
1!
#394708113
0!
#394709363
1!
#394710613
0!
#394711863
1!
#394713113
1"
#394713113
0!
#394713113
0"
#394714363
1!
#394715613
0!
#394716863
1!
#394718113
0!
#394719363
1!
#394720613
0!
#394721863
1!
#394723113
0!
#394724363
1!
#394725613
0!
#394726863
1!
#394728113
0!
#394729363
1!
#394730613
0!
#394731863
1!
#394733113
0!
#394734363
1!
#394735613
1"
#394735613
0!
#394735613
0"
#394736863
1!
#394738113
0!
#394739363
1!
#394740613
0!
#394741863
1!
#394743113
0!
#394743113
1"
#394744363
1!
#394745613
0!
#394745613
0"
#394746863
1!
#394748113
0!
#394748113
1"
#394749363
1!
#394750613
0!
#394750613
0"
#394751863
1!
#394753113
0!
#394754363
1!
#394755613
0!
#394756863
1!
#394758113
1"
#394758113
0!
#394758113
0"
#394759363
1!
#394760613
1"
#395020900
0"
#395022150
0!
#395023400
1!
#395024650
0!
#395024650
1"
#395025900
1!
#395027150
0!
#395028400
1!
#395029650
0!
#395030900
1!
#395032150
0!
#395033400
1!
#395034650
0!
#395034650
0"
#395035900
1!
#395037150
0!
#395038400
1!
#395039650
0!
#395040900
1!
#395042150
0!
#395043400
1!
#395044650
1"
#395044650
0!
#395044650
0"
#395045900
1!
#395047150
0!
#395048400
1!
#395049650
0!
#395050900
1!
#395052150
0!
#395053400
1!
#395054650
0!
#395055900
1!
#395057150
0!
#395058400
1!
#395059650
0!
#395060900
1!
#395062150
0!
#395063400
1!
#395064650
0!
#395065900
1!
#395067150
1"
#395067150
0!
#395067150
0"
#395068400
1!
#395069650
0!
#395070900
1!
#395072150
0!
#395072150
1"
#395073400
1!
#395074650
0!
#395074650
0"
#395075900
1!
#395077150
0!
#395078400
1!
#395079650
0!
#395080900
1!
#395082150
0!
#395083400
1!
#395084650
0!
#395085900
1!
#395087150
0!
#395088400
1!
#395089650
1"
#395089650
0!
#395089650
0"
#395090900
1!
#395092150
0!
#395093400
1!
#395094650
0!
#395095900
1!
#395097150
0!
#395098400
1!
#395099650
0!
#395100900
1!
#395102150
0!
#395103400
1!
#395104650
0!
#395105900
1!
#395107150
0!
#395108400
1!
#395109650
0!
#395110900
1!
#395112150
1"
#395112150
0!
#395113400
1!
#395114650
0!
#395114650
0"
#395115900
1!
#395117150
0!
#395117150
1"
#395118400
1!
#395119650
0!
#395119650
0"
#395120900
1!
#395122150
0!
#395123400
1!
#395124650
0!
#395125900
1!
#395127150
0!
#395128400
1!
#395129650
0!
#395129650
1"
#395130900
1!
#395132150
0"
#395132150
0!
#395133400
1!
#395134650
1"
#395134650
0!
#395135900
1!
#395137150
0!
#395138400
1!
#395139650
0!
#395139650
0"
#395140900
1!
#395142150
0!
#395143400
1!
#395144650
0!
#395144650
1"
#395145900
1!
#395147150
0!
#395147150
0"
#395148400
1!
#395149650
0!
#395150900
1!
#395152150
0!
#395153400
1!
#395154650
0!
#395155900
1!
#395157150
1"
#395157150
0!
#395157150
0"
#395158400
1!
#395159650
1"
#395409463
0"
#395410713
0!
#395411963
1!
#395413213
0!
#395413213
1"
#395414463
1!
#395415713
0!
#395416963
1!
#395418213
0!
#395419463
1!
#395420713
0!
#395421963
1!
#395423213
0!
#395423213
0"
#395424463
1!
#395425713
0!
#395426963
1!
#395428213
0!
#395429463
1!
#395430713
0!
#395431963
1!
#395433213
1"
#395433213
0!
#395433213
0"
#395434463
1!
#395435713
0!
#395436963
1!
#395438213
0!
#395439463
1!
#395440713
0!
#395441963
1!
#395443213
0!
#395444463
1!
#395445713
0!
#395446963
1!
#395448213
0!
#395449463
1!
#395450713
0!
#395451963
1!
#395453213
0!
#395454463
1!
#395455713
1"
#395455713
0!
#395456963
1!
#395458213
0!
#395459463
1!
#395460713
0!
#395460713
0"
#395461963
1!
#395463213
0!
#395463213
1"
#395464463
1!
#395465713
0!
#395466963
1!
#395468213
0!
#395468213
0"
#395469463
1!
#395470713
0!
#395470713
1"
#395471963
1!
#395473213
0!
#395473213
0"
#395474463
1!
#395475713
0!
#395476963
1!
#395478213
1"
#395478213
0!
#395478213
0"
#395479463
1!
#395480713
1"
#395685883
0"
#395687133
0!
#395688383
1!
#395689633
0!
#395689633
1"
#395690883
1!
#395692133
0!
#395693383
1!
#395694633
0!
#395695883
1!
#395697133
0!
#395698383
1!
#395699633
0!
#395699633
0"
#395700883
1!
#395702133
0!
#395703383
1!
#395704633
0!
#395705883
1!
#395707133
0!
#395708383
1!
#395709633
1"
#395709633
0!
#395709633
0"
#395710883
1!
#395712133
0!
#395713383
1!
#395714633
0!
#395715883
1!
#395717133
0!
#395718383
1!
#395719633
0!
#395720883
1!
#395722133
0!
#395723383
1!
#395724633
0!
#395725883
1!
#395727133
0!
#395728383
1!
#395729633
0!
#395730883
1!
#395732133
1"
#395732133
0!
#395732133
0"
#395733383
1!
#395734633
0!
#395735883
1!
#395737133
0!
#395738383
1!
#395739633
0!
#395739633
1"
#395740883
1!
#395742133
0!
#395742133
0"
#395743383
1!
#395744633
0!
#395745883
1!
#395747133
0!
#395747133
1"
#395748383
1!
#395749633
0!
#395749633
0"
#395750883
1!
#395752133
0!
#395753383
1!
#395754633
1"
#395754633
0!
#395754633
0"
#395755883
1!
#395757133
1"
#396005321
0"
#396006571
0!
#396007821
1!
#396009071
0!
#396009071
1"
#396010321
1!
#396011571
0!
#396012821
1!
#396014071
0!
#396015321
1!
#396016571
0!
#396017821
1!
#396019071
0!
#396019071
0"
#396020321
1!
#396021571
0!
#396022821
1!
#396024071
0!
#396025321
1!
#396026571
0!
#396027821
1!
#396029071
1"
#396029071
0!
#396029071
0"
#396030321
1!
#396031571
0!
#396032821
1!
#396034071
0!
#396035321
1!
#396036571
0!
#396037821
1!
#396039071
0!
#396040321
1!
#396041571
0!
#396042821
1!
#396044071
0!
#396045321
1!
#396046571
0!
#396047821
1!
#396049071
0!
#396050321
1!
#396051571
1"
#396051571
0!
#396052821
1!
#396054071
0!
#396054071
0"
#396055321
1!
#396056571
0!
#396057821
1!
#396059071
0!
#396060321
1!
#396061571
0!
#396062821
1!
#396064071
0!
#396065321
1!
#396066571
0!
#396067821
1!
#396069071
0!
#396069071
1"
#396070321
1!
#396071571
0"
#396071571
0!
#396072821
1!
#396074071
1"
#396074071
0!
#396074071
0"
#396075321
1!
#396076571
1"
#396342796
0"
#396344046
0!
#396345296
1!
#396346546
0!
#396346546
1"
#396347796
1!
#396349046
0!
#396350296
1!
#396351546
0!
#396352796
1!
#396354046
0!
#396355296
1!
#396356546
0!
#396356546
0"
#396357796
1!
#396359046
0!
#396360296
1!
#396361546
0!
#396362796
1!
#396364046
0!
#396365296
1!
#396366546
1"
#396366546
0!
#396366546
0"
#396367796
1!
#396369046
0!
#396370296
1!
#396371546
0!
#396372796
1!
#396374046
0!
#396375296
1!
#396376546
0!
#396377796
1!
#396379046
0!
#396380296
1!
#396381546
0!
#396382796
1!
#396384046
0!
#396385296
1!
#396386546
0!
#396387796
1!
#396389046
1"
#396389046
0!
#396390296
1!
#396391546
0!
#396392796
1!
#396394046
0!
#396394046
0"
#396395296
1!
#396396546
0!
#396397796
1!
#396399046
0!
#396399046
1"
#396400296
1!
#396401546
0!
#396402796
1!
#396404046
0!
#396405296
1!
#396406546
0!
#396407796
1!
#396409046
0"
#396409046
0!
#396410296
1!
#396411546
1"
#396411546
0!
#396411546
0"
#396412796
1!
#396414046
1"
#396609067
0"
#396610317
0!
#396611567
1!
#396612817
0!
#396612817
1"
#396614067
1!
#396615317
0!
#396616567
1!
#396617817
0!
#396619067
1!
#396620317
0!
#396621567
1!
#396622817
0!
#396622817
0"
#396624067
1!
#396625317
0!
#396626567
1!
#396627817
0!
#396629067
1!
#396630317
0!
#396631567
1!
#396632817
1"
#396632817
0!
#396632817
0"
#396634067
1!
#396635317
0!
#396636567
1!
#396637817
0!
#396639067
1!
#396640317
0!
#396641567
1!
#396642817
0!
#396644067
1!
#396645317
0!
#396646567
1!
#396647817
0!
#396649067
1!
#396650317
0!
#396651567
1!
#396652817
0!
#396654067
1!
#396655317
1"
#396655317
0!
#396656567
1!
#396657817
0!
#396659067
1!
#396660317
0!
#396660317
0"
#396661567
1!
#396662817
0!
#396662817
1"
#396664067
1!
#396665317
0!
#396666567
1!
#396667817
0!
#396667817
0"
#396669067
1!
#396670317
0!
#396671567
1!
#396672817
0!
#396672817
1"
#396674067
1!
#396675317
0"
#396675317
0!
#396676567
1!
#396677817
1"
#396677817
0!
#396677817
0"
#396679067
1!
#396680317
1"
#396928754
0"
#396930004
0!
#396931254
1!
#396932504
0!
#396932504
1"
#396933754
1!
#396935004
0!
#396936254
1!
#396937504
0!
#396938754
1!
#396940004
0!
#396941254
1!
#396942504
0!
#396942504
0"
#396943754
1!
#396945004
0!
#396946254
1!
#396947504
0!
#396948754
1!
#396950004
0!
#396951254
1!
#396952504
1"
#396952504
0!
#396952504
0"
#396953754
1!
#396955004
0!
#396956254
1!
#396957504
0!
#396958754
1!
#396960004
0!
#396961254
1!
#396962504
0!
#396963754
1!
#396965004
0!
#396966254
1!
#396967504
0!
#396968754
1!
#396970004
0!
#396971254
1!
#396972504
0!
#396973754
1!
#396975004
1"
#396975004
0!
#396976254
1!
#396977504
0!
#396978754
1!
#396980004
0!
#396981254
1!
#396982504
0!
#396983754
1!
#396985004
0!
#396985004
0"
#396986254
1!
#396987504
0!
#396988754
1!
#396990004
0!
#396991254
1!
#396992504
0!
#396992504
1"
#396993754
1!
#396995004
0"
#396995004
0!
#396996254
1!
#396997504
1"
#396997504
0!
#396997504
0"
#396998754
1!
#397000004
1"
#397285396
0"
#397286646
0!
#397287896
1!
#397289146
0!
#397289146
1"
#397290396
1!
#397291646
0!
#397292896
1!
#397294146
0!
#397295396
1!
#397296646
0!
#397297896
1!
#397299146
0!
#397299146
0"
#397300396
1!
#397301646
0!
#397302896
1!
#397304146
0!
#397305396
1!
#397306646
0!
#397307896
1!
#397309146
1"
#397309146
0!
#397309146
0"
#397310396
1!
#397311646
0!
#397312896
1!
#397314146
0!
#397315396
1!
#397316646
0!
#397317896
1!
#397319146
0!
#397320396
1!
#397321646
0!
#397322896
1!
#397324146
0!
#397325396
1!
#397326646
0!
#397327896
1!
#397329146
0!
#397330396
1!
#397331646
1"
#397331646
0!
#397332896
1!
#397334146
0!
#397335396
1!
#397336646
0!
#397336646
0"
#397337896
1!
#397339146
0!
#397339146
1"
#397340396
1!
#397341646
0!
#397342896
1!
#397344146
0!
#397344146
0"
#397345396
1!
#397346646
0!
#397346646
1"
#397347896
1!
#397349146
0!
#397350396
1!
#397351646
0"
#397351646
0!
#397352896
1!
#397354146
1"
#397354146
0!
#397354146
0"
#397355396
1!
#397356646
0!
#397356646
1"
#397357896
1!
#397359146
0!
#397359146
0"
#397360396
1!
#397361646
0!
#397362896
1!
#397364146
0!
#397365396
1!
#397366646
0!
#397367896
1!
#397369146
0!
#397370396
1!
#397371646
0!
#397372896
1!
#397374146
0!
#397375396
1!
#397376646
1"
#397376646
0!
#397377896
1!
#397379146
0!
#397379146
0"
#397380396
1!
#397381646
0!
#397381646
1"
#397382896
1!
#397384146
0!
#397384146
0"
#397385396
1!
#397386646
0!
#397387896
1!
#397389146
0!
#397389146
1"
#397390396
1!
#397391646
0!
#397391646
0"
#397392896
1!
#397394146
0!
#397395396
1!
#397396646
0!
#397397896
1!
#397399146
1"
#397399146
0!
#397400396
1!
#397401646
0!
#397401646
0"
#397402896
1!
#397404146
0!
#397404146
1"
#397405396
1!
#397406646
0!
#397406646
0"
#397407896
1!
#397409146
0!
#397410396
1!
#397411646
0!
#397411646
1"
#397412896
1!
#397414146
0!
#397415396
1!
#397416646
0!
#397416646
0"
#397417896
1!
#397419146
0!
#397420396
1!
#397421646
1"
#397421646
0!
#397421646
0"
#397422896
1!
#397424146
0!
#397425396
1!
#397426646
0!
#397426646
1"
#397427896
1!
#397429146
0!
#397429146
0"
#397430396
1!
#397431646
0!
#397431646
1"
#397432896
1!
#397434146
0!
#397435396
1!
#397436646
0!
#397437896
1!
#397439146
0!
#397439146
0"
#397440396
1!
#397441646
0!
#397442896
1!
#397444146
1"
#397444146
0!
#397445396
1!
#397446646
0!
#397446646
0"
#397447896
1!
#397449146
0!
#397449146
1"
#397450396
1!
#397451646
0!
#397451646
0"
#397452896
1!
#397454146
0!
#397454146
1"
#397455396
1!
#397456646
0!
#397457896
1!
#397459146
0!
#397460396
1!
#397461646
0!
#397462896
1!
#397464146
0"
#397464146
0!
#397465396
1!
#397466646
1"
#397466646
0!
#397466646
0"
#397467896
1!
#397469146
1"
#404005592
0"
#404006842
0!
#404008092
1!
#404009342
0!
#404009342
1"
#404010592
1!
#404011842
0!
#404013092
1!
#404014342
0!
#404015592
1!
#404016842
0!
#404018092
1!
#404019342
0!
#404019342
0"
#404020592
1!
#404021842
0!
#404023092
1!
#404024342
0!
#404025592
1!
#404026842
0!
#404028092
1!
#404029342
1"
#404029342
0!
#404029342
0"
#404030592
1!
#404031842
0!
#404033092
1!
#404034342
0!
#404035592
1!
#404036842
0!
#404038092
1!
#404039342
0!
#404040592
1!
#404041842
0!
#404043092
1!
#404044342
0!
#404045592
1!
#404046842
0!
#404048092
1!
#404049342
0!
#404050592
1!
#404051842
1"
#404051842
0!
#404051842
0"
#404053092
1!
#404054342
0!
#404055592
1!
#404056842
0!
#404056842
1"
#404058092
1!
#404059342
0!
#404059342
0"
#404060592
1!
#404061842
0!
#404063092
1!
#404064342
0!
#404065592
1!
#404066842
0!
#404066842
1"
#404068092
1!
#404069342
0!
#404069342
0"
#404070592
1!
#404071842
0!
#404073092
1!
#404074342
1"
#404074342
0!
#404074342
0"
#404075592
1!
#404076842
0!
#404078092
1!
#404079342
0!
#404080592
1!
#404081842
0!
#404083092
1!
#404084342
0!
#404085592
1!
#404086842
0!
#404088092
1!
#404089342
0!
#404090592
1!
#404091842
0!
#404093092
1!
#404094342
0!
#404095592
1!
#404096842
1"
#404096842
0!
#404098092
1!
#404099342
0!
#404100592
1!
#404101842
0!
#404103092
1!
#404104342
0!
#404105592
1!
#404106842
0!
#404108092
1!
#404109342
0!
#404110592
1!
#404111842
0!
#404113092
1!
#404114342
0!
#404115592
1!
#404116842
0"
#404116842
0!
#404118092
1!
#404119342
1"
#404119342
0!
#404119342
0"
#404120592
1!
#404121842
0!
#404123092
1!
#404124342
0!
#404124342
1"
#404125592
1!
#404126842
0!
#404126842
0"
#404128092
1!
#404129342
0!
#404130592
1!
#404131842
0!
#404133092
1!
#404134342
0!
#404135592
1!
#404136842
0!
#404136842
1"
#404138092
1!
#404139342
0"
#404139342
0!
#404140592
1!
#404141842
1"
#404141842
0!
#404141842
0"
#404143092
1!
#404144342
1"
#404392904
0"
#404394154
0!
#404395404
1!
#404396654
0!
#404396654
1"
#404397904
1!
#404399154
0!
#404400404
1!
#404401654
0!
#404402904
1!
#404404154
0!
#404405404
1!
#404406654
0!
#404406654
0"
#404407904
1!
#404409154
0!
#404410404
1!
#404411654
0!
#404412904
1!
#404414154
0!
#404415404
1!
#404416654
1"
#404416654
0!
#404416654
0"
#404417904
1!
#404419154
0!
#404420404
1!
#404421654
0!
#404422904
1!
#404424154
0!
#404425404
1!
#404426654
0!
#404427904
1!
#404429154
0!
#404430404
1!
#404431654
0!
#404432904
1!
#404434154
0!
#404435404
1!
#404436654
0!
#404437904
1!
#404439154
1"
#404439154
0!
#404439154
0"
#404440404
1!
#404441654
0!
#404442904
1!
#404444154
0!
#404445404
1!
#404446654
0!
#404447904
1!
#404449154
0!
#404450404
1!
#404451654
0!
#404452904
1!
#404454154
0!
#404455404
1!
#404456654
0!
#404457904
1!
#404459154
0!
#404460404
1!
#404461654
1"
#404461654
0!
#404461654
0"
#404462904
1!
#404464154
1"
#404676346
0"
#404677596
0!
#404678846
1!
#404680096
0!
#404680096
1"
#404681346
1!
#404682596
0!
#404683846
1!
#404685096
0!
#404686346
1!
#404687596
0!
#404688846
1!
#404690096
0!
#404690096
0"
#404691346
1!
#404692596
0!
#404693846
1!
#404695096
0!
#404696346
1!
#404697596
0!
#404698846
1!
#404700096
1"
#404700096
0!
#404700096
0"
#404701346
1!
#404702596
0!
#404703846
1!
#404705096
0!
#404706346
1!
#404707596
0!
#404708846
1!
#404710096
0!
#404711346
1!
#404712596
0!
#404713846
1!
#404715096
0!
#404716346
1!
#404717596
0!
#404718846
1!
#404720096
0!
#404721346
1!
#404722596
1"
#404722596
0!
#404722596
0"
#404723846
1!
#404725096
0!
#404725096
1"
#404726346
1!
#404727596
0!
#404728846
1!
#404730096
0!
#404731346
1!
#404732596
0!
#404733846
1!
#404735096
0!
#404736346
1!
#404737596
0!
#404738846
1!
#404740096
0!
#404741346
1!
#404742596
0"
#404742596
0!
#404743846
1!
#404745096
1"
#404745096
0!
#404745096
0"
#404746346
1!
#404747596
1"
#405415775
0"
#405417025
0!
#405418275
1!
#405419525
0!
#405419525
1"
#405420775
1!
#405422025
0!
#405423275
1!
#405424525
0!
#405425775
1!
#405427025
0!
#405428275
1!
#405429525
0!
#405429525
0"
#405430775
1!
#405432025
0!
#405433275
1!
#405434525
0!
#405435775
1!
#405437025
0!
#405438275
1!
#405439525
1"
#405439525
0!
#405439525
0"
#405440775
1!
#405442025
0!
#405442025
1"
#405443275
1!
#405444525
0!
#405444525
0"
#405445775
1!
#405447025
0!
#405448275
1!
#405449525
0!
#405450775
1!
#405452025
0!
#405453275
1!
#405454525
0!
#405455775
1!
#405457025
0!
#405458275
1!
#405459525
0!
#405460775
1!
#405462025
1"
#405462025
0!
#405462025
0"
#405463275
1!
#405464525
0!
#405464525
1"
#405465775
1!
#405467025
0!
#405468275
1!
#405469525
0!
#405470775
1!
#405472025
0!
#405473275
1!
#405474525
0!
#405475775
1!
#405477025
0!
#405478275
1!
#405479525
0!
#405480775
1!
#405482025
0"
#405482025
0!
#405483275
1!
#405484525
1"
#405484525
0!
#405484525
0"
#405485775
1!
#405487025
0!
#405487025
1"
#405488275
1!
#405489525
0!
#405489525
0"
#405490775
1!
#405492025
0!
#405493275
1!
#405494525
0!
#405494525
1"
#405495775
1!
#405497025
0!
#405497025
0"
#405498275
1!
#405499525
0!
#405500775
1!
#405502025
0!
#405502025
1"
#405503275
1!
#405504525
0"
#405504525
0!
#405505775
1!
#405507025
1"
#405507025
0!
#405507025
0"
#405508275
1!
#405509525
0!
#405509525
1"
#405510775
1!
#405512025
0!
#405512025
0"
#405513275
1!
#405514525
0!
#405515775
1!
#405517025
0!
#405517025
1"
#405518275
1!
#405519525
0!
#405519525
0"
#405520775
1!
#405522025
0!
#405523275
1!
#405524525
0!
#405524525
1"
#405525775
1!
#405527025
0"
#405527025
0!
#405528275
1!
#405529525
1"
#405529525
0!
#405529525
0"
#405530775
1!
#405532025
0!
#405532025
1"
#405533275
1!
#405534525
0!
#405534525
0"
#405535775
1!
#405537025
0!
#405538275
1!
#405539525
0!
#405539525
1"
#405540775
1!
#405542025
0!
#405542025
0"
#405543275
1!
#405544525
0!
#405545775
1!
#405547025
0!
#405547025
1"
#405548275
1!
#405549525
0"
#405549525
0!
#405550775
1!
#405552025
1"
#405552025
0!
#405552025
0"
#405553275
1!
#405554525
0!
#405554525
1"
#405555775
1!
#405557025
0!
#405557025
0"
#405558275
1!
#405559525
0!
#405560775
1!
#405562025
0!
#405563275
1!
#405564525
0!
#405565775
1!
#405567025
0!
#405568275
1!
#405569525
0!
#405569525
1"
#405570775
1!
#405572025
0"
#405572025
0!
#405573275
1!
#405574525
1"
#405574525
0!
#405574525
0"
#405575775
1!
#405577025
0!
#405578275
1!
#405579525
0!
#405580775
1!
#405582025
0!
#405583275
1!
#405584525
0!
#405585775
1!
#405587025
0!
#405588275
1!
#405589525
0!
#405590775
1!
#405592025
0!
#405593275
1!
#405594525
0!
#405595775
1!
#405597025
1"
#405597025
0!
#405597025
0"
#405598275
1!
#405599525
0!
#405599525
1"
#405600775
1!
#405602025
0!
#405602025
0"
#405603275
1!
#405604525
0!
#405605775
1!
#405607025
0!
#405607025
1"
#405608275
1!
#405609525
0!
#405609525
0"
#405610775
1!
#405612025
0!
#405613275
1!
#405614525
0!
#405615775
1!
#405617025
0!
#405618275
1!
#405619525
1"
#405619525
0!
#405619525
0"
#405620775
1!
#405622025
0!
#405622025
1"
#405623275
1!
#405624525
0!
#405624525
0"
#405625775
1!
#405627025
0!
#405627025
1"
#405628275
1!
#405629525
0!
#405629525
0"
#405630775
1!
#405632025
0!
#405632025
1"
#405633275
1!
#405634525
0!
#405634525
0"
#405635775
1!
#405637025
0!
#405638275
1!
#405639525
0!
#405640775
1!
#405642025
1"
#405642025
0!
#405642025
0"
#405643275
1!
#405644525
0!
#405644525
1"
#405645775
1!
#405647025
0!
#405647025
0"
#405648275
1!
#405649525
0!
#405649525
1"
#405650775
1!
#405652025
0!
#405652025
0"
#405653275
1!
#405654525
0!
#405654525
1"
#405655775
1!
#405657025
0!
#405657025
0"
#405658275
1!
#405659525
0!
#405660775
1!
#405662025
0!
#405663275
1!
#405664525
1"
#405664525
0!
#405664525
0"
#405665775
1!
#405667025
0!
#405667025
1"
#405668275
1!
#405669525
0!
#405669525
0"
#405670775
1!
#405672025
0!
#405672025
1"
#405673275
1!
#405674525
0!
#405674525
0"
#405675775
1!
#405677025
0!
#405677025
1"
#405678275
1!
#405679525
0!
#405679525
0"
#405680775
1!
#405682025
0!
#405683275
1!
#405684525
0!
#405685775
1!
#405687025
1"
#405687025
0!
#405687025
0"
#405688275
1!
#405689525
0!
#405690775
1!
#405692025
0!
#405692025
1"
#405693275
1!
#405694525
0!
#405694525
0"
#405695775
1!
#405697025
0!
#405698275
1!
#405699525
0!
#405699525
1"
#405700775
1!
#405702025
0!
#405702025
0"
#405703275
1!
#405704525
0!
#405705775
1!
#405707025
0!
#405708275
1!
#405709525
1"
#405709525
0!
#405709525
0"
#405710775
1!
#405712025
0!
#405713275
1!
#405714525
0!
#405715775
1!
#405717025
0!
#405718275
1!
#405719525
0!
#405720775
1!
#405722025
0!
#405723275
1!
#405724525
0!
#405725775
1!
#405727025
0!
#405728275
1!
#405729525
0!
#405730775
1!
#405732025
1"
#405732025
0!
#405732025
0"
#405733275
1!
#405734525
0!
#405735775
1!
#405737025
0!
#405738275
1!
#405739525
0!
#405740775
1!
#405742025
0!
#405743275
1!
#405744525
0!
#405744525
1"
#405745775
1!
#405747025
0!
#405747025
0"
#405748275
1!
#405749525
0!
#405750775
1!
#405752025
0!
#405753275
1!
#405754525
1"
#405754525
0!
#405754525
0"
#405755775
1!
#405757025
0!
#405758275
1!
#405759525
0!
#405760775
1!
#405762025
0!
#405763275
1!
#405764525
0!
#405765775
1!
#405767025
0!
#405767025
1"
#405768275
1!
#405769525
0!
#405769525
0"
#405770775
1!
#405772025
0!
#405773275
1!
#405774525
0!
#405775775
1!
#405777025
1"
#405777025
0!
#405777025
0"
#405778275
1!
#405779525
0!
#405780775
1!
#405782025
0!
#405782025
1"
#405783275
1!
#405784525
0!
#405785775
1!
#405787025
0!
#405788275
1!
#405789525
0!
#405790775
1!
#405792025
0!
#405793275
1!
#405794525
0!
#405795775
1!
#405797025
0"
#405797025
0!
#405798275
1!
#405799525
1"
#405799525
0!
#405799525
0"
#405800775
1!
#405802025
0!
#405802025
1"
#405803275
1!
#405804525
0!
#405804525
0"
#405805775
1!
#405807025
0!
#405808275
1!
#405809525
0!
